<?xml version="1.0" encoding="UTF-8"?>
<!-- Creator: CorelDRAW X7 -->
<svg xmlns="http://www.w3.org/2000/svg" xml:space="preserve" width="1280px" height="720px" version="1.1" style="shape-rendering:geometricPrecision; text-rendering:geometricPrecision; image-rendering:optimizeQuality; fill-rule:evenodd; clip-rule:evenodd"
viewBox="0 0 12800 7200"
 xmlns:xlink="http://www.w3.org/1999/xlink">
 <g id="__x0023_Layer_x0020_1">
  <metadata id="CorelCorpID_0Corel-Layer"/>
  <g id="_863586992">
   <polygon class="fil0" points="0,0 12800,0 12800,7200 0,7200 "/>
   <path class="fil1 str0" d="M6024 3232c253,0 506,0 758,0 0,23 0,46 0,69 -42,0 -84,0 -125,0 0,229 0,458 0,687 -10,0 -19,0 -29,0 -54,-83 -127,-154 -211,-207 -53,-33 -111,-60 -171,-74 -44,-11 -88,-14 -133,-11 -13,-38 -27,-77 -40,-115 168,-82 336,-163 505,-245 -1,-12 -1,-23 -1,-35 -184,0 -368,0 -553,0 0,-23 0,-46 0,-69zm192 376l0 0c52,13 101,36 146,65 84,55 157,126 215,208 0,-150 0,-299 0,-449 -120,58 -240,117 -361,176z"/>
   <path class="fil2" d="M465 6806c0,27 5,47 14,61 10,15 23,22 40,22 16,0 29,-7 37,-21 9,-14 13,-34 13,-60 0,-25 -4,-43 -13,-56 -9,-13 -22,-19 -40,-19 -17,0 -30,6 -39,18 -8,11 -12,30 -12,55zm-4 -64c5,-13 13,-23 24,-30 10,-7 23,-11 38,-11 26,0 47,9 62,28 15,18 22,44 22,77 0,35 -8,63 -24,84 -15,20 -37,31 -64,31 -32,0 -56,-13 -71,-38 -15,-25 -22,-66 -22,-121 0,-65 7,-111 22,-140 15,-28 40,-42 73,-42 24,0 43,7 56,22 14,14 21,33 21,58l-36 0 0 -3c0,-14 -4,-24 -12,-33 -7,-8 -17,-12 -30,-12 -20,0 -34,9 -42,27 -9,18 -15,52 -17,103zm289 -167l-118 380 -24 0 118 -380 24 0zm57 231c0,27 5,47 14,61 9,15 23,22 40,22 16,0 29,-7 37,-21 9,-14 13,-34 13,-60 0,-25 -4,-43 -13,-56 -9,-13 -22,-19 -40,-19 -17,0 -30,6 -39,18 -8,11 -12,30 -12,55zm-5 -64c6,-13 14,-23 25,-30 10,-7 23,-11 38,-11 26,0 47,9 62,28 15,18 22,44 22,77 0,35 -8,63 -24,84 -15,20 -37,31 -64,31 -32,0 -56,-13 -71,-38 -15,-25 -22,-66 -22,-121 0,-65 7,-111 22,-140 15,-28 40,-42 73,-42 24,0 42,7 56,22 14,14 21,33 21,58l-36 0 0 -3c0,-14 -4,-24 -12,-33 -7,-8 -17,-12 -30,-12 -20,0 -34,9 -42,27 -9,18 -15,52 -18,103zm223 7c0,54 4,90 12,110 7,20 21,29 40,29 19,0 32,-9 39,-26 8,-18 11,-55 11,-113 0,-53 -3,-89 -11,-108 -8,-19 -21,-28 -40,-28 -19,0 -32,9 -40,27 -7,18 -11,55 -11,109zm-38 1c0,-62 7,-106 20,-131 14,-26 37,-38 69,-38 17,0 30,3 42,10 11,7 21,18 30,33 6,12 11,27 13,46 3,19 5,46 5,80 0,62 -7,106 -21,132 -13,26 -36,39 -67,39 -33,0 -57,-13 -70,-39 -14,-25 -21,-69 -21,-132z"/>
   <path class="fil2" d="M11675 6806c0,27 5,47 14,61 9,15 23,22 40,22 16,0 29,-7 37,-21 9,-14 13,-34 13,-60 0,-25 -4,-43 -13,-56 -9,-13 -22,-19 -40,-19 -18,0 -31,6 -39,18 -8,11 -12,30 -12,55zm-5 -64c6,-13 14,-23 24,-30 11,-7 24,-11 39,-11 26,0 47,9 62,28 15,18 22,44 22,77 0,35 -8,63 -24,84 -16,20 -37,31 -64,31 -33,0 -56,-13 -71,-38 -15,-25 -22,-66 -22,-121 0,-65 7,-111 22,-140 15,-28 40,-42 73,-42 24,0 42,7 56,22 14,14 21,33 21,58l-37 0 0 -3c0,-14 -3,-24 -11,-33 -7,-8 -17,-12 -30,-12 -20,0 -34,9 -43,27 -8,18 -14,52 -17,103zm290 -167l-118 380 -24 0 118 -380 24 0zm57 231c0,27 5,47 14,61 9,15 23,22 40,22 16,0 29,-7 37,-21 9,-14 13,-34 13,-60 0,-25 -4,-43 -13,-56 -9,-13 -22,-19 -40,-19 -18,0 -31,6 -39,18 -8,11 -12,30 -12,55zm-5 -64c6,-13 14,-23 24,-30 11,-7 24,-11 39,-11 26,0 47,9 62,28 15,18 22,44 22,77 0,35 -8,63 -24,84 -16,20 -37,31 -64,31 -33,0 -56,-13 -71,-38 -15,-25 -22,-66 -22,-121 0,-65 7,-111 22,-140 15,-28 39,-42 73,-42 24,0 42,7 56,22 14,14 21,33 21,58l-37 0 0 -3c0,-14 -3,-24 -11,-33 -7,-8 -17,-12 -30,-12 -20,0 -34,9 -43,27 -8,18 -14,52 -17,103zm223 7c0,54 4,90 11,110 8,20 22,29 41,29 19,0 32,-9 39,-26 8,-18 11,-55 11,-113 0,-53 -4,-89 -11,-108 -8,-19 -21,-28 -40,-28 -19,0 -32,9 -40,27 -7,18 -11,55 -11,109zm-38 1c0,-62 7,-106 20,-131 14,-26 37,-38 69,-38 16,0 30,3 42,10 11,7 21,18 30,33 6,12 10,27 13,46 3,19 5,46 5,80 0,62 -7,106 -21,132 -13,26 -36,39 -68,39 -32,0 -56,-13 -70,-39 -13,-25 -20,-69 -20,-132z"/>
  </g>
 </g>
</svg>
